%YAML 1.1
%TAG !u! tag:unity3d.com,2011:
--- !u!114 &11400000
MonoBehaviour:
  m_ObjectHideFlags: 0
  m_PrefabParentObject: {fileID: 0}
  m_PrefabInternal: {fileID: 0}
  m_GameObject: {fileID: 0}
  m_Enabled: 1
  m_EditorHideFlags: 0
  m_Script: {fileID: 11500000, guid: a379098dd7561914d8dd8cff9ab73f1e, type: 3}
  m_Name: actors-config
  m_EditorClassIdentifier: 
  actors:
  - ID: chicken
    actorType: 2
    prefab: {fileID: 1295532675187404, guid: 0c2835b95fed6e043a68dad99648c73f, type: 2}
    stats:
    - type: health
      value: 3
    - type: strength
      value: 1
    - type: defense
      value: 1
    - type: accuracy
      value: 1
    - type: range
      value: 1
    loots:
    - itemID: feathers
      itemCount: 1
      deliveryType: 1
    - itemID: raw-meat
      itemCount: 1
      deliveryType: 1
    - itemID: soul-orb
      itemCount: 1
      deliveryType: 1
    crafts: []
  - ID: player
    actorType: 1
    prefab: {fileID: 1667335159811504, guid: 8a55899503ba70549ac39bef3d43a79f, type: 2}
    stats:
    - type: health
      value: 100
    - type: strength
      value: 1
    - type: defense
      value: 1
    - type: accuracy
      value: 1
    - type: range
      value: 1.25
    loots: []
    crafts: []
  - ID: bronze-ore-mine
    actorType: 3
    prefab: {fileID: 1095149715165682, guid: ae2bb1500f8c8d2439c7e35a11f75996, type: 2}
    stats: []
    loots: []
    crafts:
    - craftType: 1
      duration: 10
      distance: 0.75
      consumes: []
      rewards:
      - itemID: bronze-ore
        itemCount: 1
        deliveryType: 1
      actorStateName: craft
  - ID: iron-ore-mine
    actorType: 3
    prefab: {fileID: 1241456098017904, guid: 3860e21464a002b4e8725c5ba6d43a7e, type: 2}
    stats: []
    loots: []
    crafts:
    - craftType: 1
      duration: 10
      distance: 0.75
      consumes: []
      rewards:
      - itemID: iron-ore
        itemCount: 1
        deliveryType: 1
      actorStateName: craft
  - ID: birch-tree
    actorType: 3
    prefab: {fileID: 1022043257014942, guid: cc4ceccbdc0721248a4ef9ccf4eb54ab, type: 2}
    stats: []
    loots: []
    crafts:
    - craftType: 2
      duration: 10
      distance: 0.75
      consumes: []
      rewards:
      - itemID: logs
        itemCount: 1
        deliveryType: 1
      actorStateName: craft
  - ID: bonfire
    actorType: 3
    prefab: {fileID: 1671627918913436, guid: 1ee33ec9bfe1c4c69b34251a85ef290a, type: 2}
    stats: []
    loots: []
    crafts:
    - craftType: 0
      duration: 10
      distance: 1
      consumes:
      - itemID: raw-meat
        itemCount: 1
      rewards:
      - itemID: cooked-meat
        itemCount: 1
        deliveryType: 1
      actorStateName: craft
