%YAML 1.1
%TAG !u! tag:unity3d.com,2011:
--- !u!114 &11400000
MonoBehaviour:
  m_ObjectHideFlags: 0
  m_PrefabParentObject: {fileID: 0}
  m_PrefabInternal: {fileID: 0}
  m_GameObject: {fileID: 0}
  m_Enabled: 1
  m_EditorHideFlags: 0
  m_Script: {fileID: 11500000, guid: 6706509949d7403bba06f7a379d798d4, type: 3}
  m_Name: items-config
  m_EditorClassIdentifier: 
  items:
  - ID: raw-meat
    name: Raw Meat
    icon: {fileID: 21300000, guid: ed84bab4b18ed4342b5b1e8b81d414df, type: 3}
    prefab: {fileID: 1945063399491010, guid: a9fd2472e09b64dd6808ea171cc98ebb, type: 2}
  - ID: bronze-helmet
    name: Bronze Helmet
    icon: {fileID: 21300000, guid: 9ee32207e7ee59e4a8a32fa6040e78c5, type: 3}
    prefab: {fileID: 0}
  - ID: bronze-ore
    name: Bronze Ore
    icon: {fileID: 21300000, guid: c8c2a6016a0e621438c5127409c73498, type: 3}
    prefab: {fileID: 1639122777447078, guid: e126dd893619a4b49aac7a80e75078c4, type: 2}
  - ID: bronze-sword
    name: Bronze Sword
    icon: {fileID: 21300000, guid: c58d41295c7ac9340986756595109952, type: 3}
    prefab: {fileID: 1430516593200816, guid: d8a228a482fa44df6b5586b381397fb6, type: 2}
  - ID: cooked-meat
    name: Cooked meat
    icon: {fileID: 21300000, guid: e02f21daa12d45a4f9930594ff92fc2a, type: 3}
    prefab: {fileID: 1122905628393382, guid: 7cb178f1ca423df418eeaece48479c59, type: 2}
  - ID: feathers
    name: Feathers
    icon: {fileID: 21300000, guid: ffc642dacab179a4289f974700ed45bd, type: 3}
    prefab: {fileID: 1394912673202024, guid: 55aef21f7d465f647a4e53b2d6b83a02, type: 2}
  - ID: hatchet
    name: Hatchet
    icon: {fileID: 21300000, guid: 6d260ccfe3ee666448c072623cc31d53, type: 3}
    prefab: {fileID: 0}
  - ID: iron-ore
    name: Iron Ore
    icon: {fileID: 21300000, guid: ad9e95469b16d8e4785e0c94f14e3626, type: 3}
    prefab: {fileID: 1627110316333438, guid: 1ed03829b3908443a96adcc7720af5d4, type: 2}
  - ID: logs
    name: Logs
    icon: {fileID: 21300000, guid: 26aa57183e3cb354ba2e74d9d82e9dea, type: 3}
    prefab: {fileID: 1597681384347466, guid: c0a914cffb34d44a4865026021e016d2, type: 2}
  - ID: soul-orb
    name: Soul Orb
    icon: {fileID: 21300000, guid: 56b5daad1c0d6764e87e4280e96ffa4f, type: 3}
    prefab: {fileID: 1438882301885806, guid: 0e6999ffd94814559be92551539e3ae4, type: 2}
  - ID: wooden-shield
    name: Wooden Shield
    icon: {fileID: 21300000, guid: 7ec9717e0a18ae64e8eb90adcd2b408f, type: 3}
    prefab: {fileID: 0}
